{
  "Purpose": "Analytical parameters for electrical potential distribution",
  "Timestamp": "08/12/2014 15:21:01",
  "Muscle": {
    "Kind": "uterine",
    "parameters": [
    ],
    "Models": [
      {
        "name": "Tissue grid",
        "class": "tissular.TissueGrid",
        "parameters": [
                        {"name": "shape","unit": "","value": [125,125 ]},
          {"name": "tmax","unit": "ms","value": 2e3},
          {"name": "stim_list","unit":"vector","value":[{"amp":0.3,"delay":2,"duration":500,"loc":[25,25],"size":[2,2]}]
          }
        ]
      },
      {
        "name": "Red3",
        "class": "cellular.Red3",
        "parameters": [
        ]
      },
      {
        "name": "H&M",
        "class": "cellular.HaiMurphy",
        "parameters": [
        ]
      }
    ]
  }
}
